#---------------------------------TERMINAL-STUFF---------------------------------#
alacritty
kitty

bash-completion
zsh
zsh-autosuggestions
zsh-completions
zsh-syntax-highlighting

tmux

fzf
#--------------------------------------------------------------------------------#


#-----------------------------------UTILITIES------------------------------------#
jq
flameshot
unzip
stow
peek
spectacle
#--------------------------------------------------------------------------------#


#--------------------------------DEV_DEPENDENCIES--------------------------------#
git
python
vim
neovim
jre11-openjdk
docker
docker-compose
nodejs
npm
xclip
#--------------------------------------------------------------------------------#


#------------------------------------DRIVERS-------------------------------------#
#vbox_video_driver
xf86-video-fbdev
#--------------------------------------------------------------------------------#


#--------------------------------OS_DEPENDENCIES---------------------------------#
base-devel
exa
feh
htop
nitrogen
ntfs-3g
dmenu
lightdm
lightdm-gtk-greeter
ufw
xorg-server
xorg
volumeicon
festival
wget
cmake
#--------------------------------------------------------------------------------#


#---------------------------------------WINDOW_MANAGER---------------------------------------#
i3-gaps
i3blocks
i3lock
i3status
#--------------------------------------------------------------------------------#


#---------------------------------NOTIFICATIONS----------------------------------#
libnotify
notify-osd
#--------------------------------------------------------------------------------#


#---------------------------------------OTHER---------------------------------------#
firefox
mpv
vlc
thunar
yad
#--------------------------------------------------------------------------------#

